Main: Begining Execution
Main: 
TIME***********************************************************************
TIME CPU percent    0.00   0.00                    Fri Dec  2 17:37:10 2016
TIME begining              0.00 u         0.02 s   Res:        1332
TIME begining              0.00 u_t       0.02 s_t
TIME***********************************************************************



Main: outfile '../../IOFiles/xout.txt'
Main: logfile '../../IOFiles/xlog.txt'
Main: configfile '../../IOFiles/config.txt'
Main: pctfile '../../IOFiles/pct.txt'

Main: 
CONFIG: RN seed:                    35
CONFIG: Election Day length:     46800 =   13.00 (   13.00) hours
CONFIG: Time to vote mean:         105 =    1.75 minutes
CONFIG: Min and max expected voters for this simulation:           50    5000
Wait time (minutes) that is 'too long':       30
Number of iterations to perform:    3
Max service time subscript:  12957
CONFIG:  0- 0 :    0.00
CONFIG:  6- 7 :   10.00
CONFIG:  7- 8 :   10.00
CONFIG:  8- 9 :   10.00
CONFIG:  9-10 :    5.00
CONFIG: 10-11 :    5.00
CONFIG: 11-12 :    5.00
CONFIG: 12-13 :   10.00
CONFIG: 13-14 :   10.00
CONFIG: 14-15 :    5.00
CONFIG: 15-16 :    5.00
CONFIG: 16-17 :    5.00
CONFIG: 17-18 :   10.00
CONFIG: 18-19 :   10.00



here
SIM: RunSimulation for pct 
SIM:    1 XXX00100                 20.20      10101     100     235  8   10.30 HH    0 HH
'
'OnePct:    1 XXX00100                 20.20      10101     100     235  8   10.30 HH    0 HH
'
'OnePct:   0    1 XXX00100                    100   1 stations, mean/dev wait (mins)     0.45     1.05 toolong      0   0.00     0   0.00     0   0.00
'
'OnePct:   1    1 XXX00100                    100   1 stations, mean/dev wait (mins)     1.37     2.82 toolong      0   0.00     0   0.00     0   0.00
'
'OnePct:   2    1 XXX00100                    100   1 stations, mean/dev wait (mins)     1.39     2.86 toolong      0   0.00     0   0.00     0   0.00
'
'OnePct: toolong space filler
'
'OnePct:    1 XXX00100                 20.20      10101     100     235  8   10.30 HH    0 HH
'
'OnePct:   0    1 XXX00100                    100   2 stations, mean/dev wait (mins)     0.06     0.30 toolong      0   0.00     0   0.00     0   0.00
'
'OnePct:   1    1 XXX00100                    100   2 stations, mean/dev wait (mins)     0.04     0.18 toolong      0   0.00     0   0.00     0   0.00
'
'OnePct:   2    1 XXX00100                    100   2 stations, mean/dev wait (mins)     0.01     0.07 toolong      0   0.00     0   0.00     0   0.00
'
'OnePct: toolong space filler
'
'OnePct:    1 XXX00100                 20.20      10101     100     235  8   10.30 HH    0 HH
'
'OnePct:   0    1 XXX00100                    100   3 stations, mean/dev wait (mins)     0.00     0.00 toolong      0   0.00     0   0.00     0   0.00
'
'OnePct:   1    1 XXX00100                    100   3 stations, mean/dev wait (mins)     0.01     0.04 toolong      0   0.00     0   0.00     0   0.00
'
'OnePct:   2    1 XXX00100                    100   3 stations, mean/dev wait (mins)     0.01     0.04 toolong      0   0.00     0   0.00     0   0.00
'
'OnePct: toolong space filler
'
'OnePct:    1 XXX00100                 20.20      10101     100     235  8   10.30 HH    0 HH
'
'OnePct:   0    1 XXX00100                    100   4 stations, mean/dev wait (mins)     0.00     0.00 toolong      0   0.00     0   0.00     0   0.00
'
'OnePct:   1    1 XXX00100                    100   4 stations, mean/dev wait (mins)     0.00     0.00 toolong      0   0.00     0   0.00     0   0.00
'
'OnePct:   2    1 XXX00100                    100   4 stations, mean/dev wait (mins)     0.00     0.00 toolong      0   0.00     0   0.00     0   0.00
'
'OnePct: toolong space filler
'
'OnePct:    1 XXX00100                 20.20      10101     100     235  8   10.30 HH    0 HH
'
'OnePct:   0    1 XXX00100                    100   5 stations, mean/dev wait (mins)     0.00     0.00 toolong      0   0.00     0   0.00     0   0.00
'
'OnePct:   1    1 XXX00100                    100   5 stations, mean/dev wait (mins)     0.00     0.00 toolong      0   0.00     0   0.00     0   0.00
'
'OnePct:   2    1 XXX00100                    100   5 stations, mean/dev wait (mins)     0.00     0.00 toolong      0   0.00     0   0.00     0   0.00
'
'OnePct: toolong space filler
'
'OnePct:    1 XXX00100                 20.20      10101     100     235  8   10.30 HH    0 HH
'
'OnePct:   0    1 XXX00100                    100   6 stations, mean/dev wait (mins)     0.00     0.00 toolong      0   0.00     0   0.00     0   0.00
'
'OnePct:   1    1 XXX00100                    100   6 stations, mean/dev wait (mins)     0.00     0.00 toolong      0   0.00     0   0.00     0   0.00
'
'OnePct:   2    1 XXX00100                    100   6 stations, mean/dev wait (mins)     0.00     0.00 toolong      0   0.00     0   0.00     0   0.00
'
'OnePct: toolong space filler
'
'OnePct:    1 XXX00100                 20.20      10101     100     235  8   10.30 HH    0 HH
'
'OnePct:   0    1 XXX00100                    100   7 stations, mean/dev wait (mins)     0.00     0.00 toolong      0   0.00     0   0.00     0   0.00
'
'OnePct:   1    1 XXX00100                    100   7 stations, mean/dev wait (mins)     0.00     0.00 toolong      0   0.00     0   0.00     0   0.00
'
'OnePct:   2    1 XXX00100                    100   7 stations, mean/dev wait (mins)     0.00     0.00 toolong      0   0.00     0   0.00     0   0.00
'
'OnePct: toolong space filler
'
'OnePct:    1 XXX00100                 20.20      10101     100     235  8   10.30 HH    0 HH
'
'OnePct:   0    1 XXX00100                    100   8 stations, mean/dev wait (mins)     0.00     0.00 toolong      0   0.00     0   0.00     0   0.00
'
'OnePct:   1    1 XXX00100                    100   8 stations, mean/dev wait (mins)     0.00     0.00 toolong      0   0.00     0   0.00     0   0.00
'
'OnePct:   2    1 XXX00100                    100   8 stations, mean/dev wait (mins)     0.00     0.00 toolong      0   0.00     0   0.00     0   0.00
'
'OnePct: toolong space filler
'
'OnePct:    1 XXX00100                 20.20      10101     100     235  8   10.30 HH    0 HH
'
'OnePct:   0    1 XXX00100                    100   9 stations, mean/dev wait (mins)     0.00     0.00 toolong      0   0.00     0   0.00     0   0.00
'
'OnePct:   1    1 XXX00100                    100   9 stations, mean/dev wait (mins)     0.00     0.00 toolong      0   0.00     0   0.00     0   0.00
'
'OnePct:   2    1 XXX00100                    100   9 stations, mean/dev wait (mins)     0.00     0.00 toolong      0   0.00     0   0.00     0   0.00
'
'OnePct: toolong space filler
'
'OnePct:    1 XXX00100                 20.20      10101     100     235  8   10.30 HH    0 HH
'
'OnePct:   0    1 XXX00100                    100  10 stations, mean/dev wait (mins)     0.00     0.00 toolong      0   0.00     0   0.00     0   0.00
'
'OnePct:   1    1 XXX00100                    100  10 stations, mean/dev wait (mins)     0.00     0.00 toolong      0   0.00     0   0.00     0   0.00
'
'OnePct:   2    1 XXX00100                    100  10 stations, mean/dev wait (mins)     0.00     0.00 toolong      0   0.00     0   0.00     0   0.00
'
'OnePct: toolong space filler
'
'OnePct:    1 XXX00100                 20.20      10101     100     235  8   10.30 HH    0 HH
'
'OnePct:   0    1 XXX00100                    100  11 stations, mean/dev wait (mins)     0.00     0.00 toolong      0   0.00     0   0.00     0   0.00
'
'OnePct:   1    1 XXX00100                    100  11 stations, mean/dev wait (mins)     0.00     0.00 toolong      0   0.00     0   0.00     0   0.00
'
'OnePct:   2    1 XXX00100                    100  11 stations, mean/dev wait (mins)     0.00     0.00 toolong      0   0.00     0   0.00     0   0.00
'
'OnePct: toolong space filler
'
'OnePct:    1 XXX00100                 20.20      10101     100     235  8   10.30 HH    0 HH
'
'OnePct:   0    1 XXX00100                    100  12 stations, mean/dev wait (mins)     0.00     0.00 toolong      0   0.00     0   0.00     0   0.00
'
'OnePct:   1    1 XXX00100                    100  12 stations, mean/dev wait (mins)     0.00     0.00 toolong      0   0.00     0   0.00     0   0.00
'
'OnePct:   2    1 XXX00100                    100  12 stations, mean/dev wait (mins)     0.00     0.00 toolong      0   0.00     0   0.00     0   0.00
'
'OnePct: toolong space filler
'
'OnePct:    1 XXX00100                 20.20      10101     100     235  8   10.30 HH    0 HH
'
'OnePct:   0    1 XXX00100                    100  13 stations, mean/dev wait (mins)     0.00     0.00 toolong      0   0.00     0   0.00     0   0.00
'
'OnePct:   1    1 XXX00100                    100  13 stations, mean/dev wait (mins)     0.00     0.00 toolong      0   0.00     0   0.00     0   0.00
'
'OnePct:   2    1 XXX00100                    100  13 stations, mean/dev wait (mins)     0.00     0.00 toolong      0   0.00     0   0.00     0   0.00
'
'OnePct: toolong space filler
'
'OnePct:    1 XXX00100                 20.20      10101     100     235  8   10.30 HH    0 HH
'
'OnePct:   0    1 XXX00100                    100  14 stations, mean/dev wait (mins)     0.00     0.00 toolong      0   0.00     0   0.00     0   0.00
'
'OnePct:   1    1 XXX00100                    100  14 stations, mean/dev wait (mins)     0.00     0.00 toolong      0   0.00     0   0.00     0   0.00
'
'OnePct:   2    1 XXX00100                    100  14 stations, mean/dev wait (mins)     0.00     0.00 toolong      0   0.00     0   0.00     0   0.00
'
'OnePct: toolong space filler
'
'SIM: RunSimulation for pct 
SIM:    2 XXX00500                 21.20      10101     500     235  8   10.50 HH    0 HH
'
'OnePct:    2 XXX00500                 21.20      10101     500     235  8   10.50 HH    0 HH
'
'OnePct:   0    2 XXX00500                    500   1 stations, mean/dev wait (mins)   103.80    39.34 toolong    483  96.60   467  93.40   449  89.80
'
'OnePct:   1    2 XXX00500                    500   1 stations, mean/dev wait (mins)   120.15    66.60 toolong    420  84.00   409  81.80   404  80.80
'
'OnePct:   2    2 XXX00500                    500   1 stations, mean/dev wait (mins)   158.66    58.93 toolong    480  96.00   473  94.60   459  91.80
'
'OnePct: toolong space filler
'
'OnePct:    2 XXX00500                 21.20      10101     500     235  8   10.50 HH    0 HH
'
'OnePct:   0    2 XXX00500                    500   2 stations, mean/dev wait (mins)     1.96     3.20 toolong      0   0.00     0   0.00     0   0.00
'
'OnePct:   1    2 XXX00500                    500   2 stations, mean/dev wait (mins)     2.25     3.35 toolong      0   0.00     0   0.00     0   0.00
'
'OnePct:   2    2 XXX00500                    500   2 stations, mean/dev wait (mins)     4.68     5.52 toolong      0   0.00     0   0.00     0   0.00
'
'OnePct: toolong space filler
'
'OnePct:    2 XXX00500                 21.20      10101     500     235  8   10.50 HH    0 HH
'
'OnePct:   0    2 XXX00500                    500   3 stations, mean/dev wait (mins)     0.18     0.58 toolong      0   0.00     0   0.00     0   0.00
'
'OnePct:   1    2 XXX00500                    500   3 stations, mean/dev wait (mins)     0.42     1.01 toolong      0   0.00     0   0.00     0   0.00
'
'OnePct:   2    2 XXX00500                    500   3 stations, mean/dev wait (mins)     0.29     0.71 toolong      0   0.00     0   0.00     0   0.00
'
'OnePct: toolong space filler
'
'OnePct:    2 XXX00500                 21.20      10101     500     235  8   10.50 HH    0 HH
'
'OnePct:   0    2 XXX00500                    500   4 stations, mean/dev wait (mins)     0.29     0.97 toolong      0   0.00     0   0.00     0   0.00
'
'OnePct:   1    2 XXX00500                    500   4 stations, mean/dev wait (mins)     0.06     0.25 toolong      0   0.00     0   0.00     0   0.00
'
'OnePct:   2    2 XXX00500                    500   4 stations, mean/dev wait (mins)     0.05     0.26 toolong      0   0.00     0   0.00     0   0.00
'
'OnePct: toolong space filler
'
'OnePct:    2 XXX00500                 21.20      10101     500     235  8   10.50 HH    0 HH
'
'OnePct:   0    2 XXX00500                    500   5 stations, mean/dev wait (mins)     0.02     0.10 toolong      0   0.00     0   0.00     0   0.00
'
'OnePct:   1    2 XXX00500                    500   5 stations, mean/dev wait (mins)     0.00     0.05 toolong      0   0.00     0   0.00     0   0.00
'
'OnePct:   2    2 XXX00500                    500   5 stations, mean/dev wait (mins)     0.03     0.16 toolong      0   0.00     0   0.00     0   0.00
'
'OnePct: toolong space filler
'
'OnePct:    2 XXX00500                 21.20      10101     500     235  8   10.50 HH    0 HH
'
'OnePct:   0    2 XXX00500                    500   6 stations, mean/dev wait (mins)     0.00     0.02 toolong      0   0.00     0   0.00     0   0.00
'
'OnePct:   1    2 XXX00500                    500   6 stations, mean/dev wait (mins)     0.00     0.00 toolong      0   0.00     0   0.00     0   0.00
'
'OnePct:   2    2 XXX00500                    500   6 stations, mean/dev wait (mins)     0.01     0.09 toolong      0   0.00     0   0.00     0   0.00
'
'OnePct: toolong space filler
'
'OnePct:    2 XXX00500                 21.20      10101     500     235  8   10.50 HH    0 HH
'
'OnePct:   0    2 XXX00500                    500   7 stations, mean/dev wait (mins)     0.00     0.00 toolong      0   0.00     0   0.00     0   0.00
'
'OnePct:   1    2 XXX00500                    500   7 stations, mean/dev wait (mins)     0.00     0.00 toolong      0   0.00     0   0.00     0   0.00
'
'OnePct:   2    2 XXX00500                    500   7 stations, mean/dev wait (mins)     0.00     0.00 toolong      0   0.00     0   0.00     0   0.00
'
'OnePct: toolong space filler
'
'OnePct:    2 XXX00500                 21.20      10101     500     235  8   10.50 HH    0 HH
'
'OnePct:   0    2 XXX00500                    500   8 stations, mean/dev wait (mins)     0.00     0.00 toolong      0   0.00     0   0.00     0   0.00
'
'OnePct:   1    2 XXX00500                    500   8 stations, mean/dev wait (mins)     0.00     0.00 toolong      0   0.00     0   0.00     0   0.00
'
'OnePct:   2    2 XXX00500                    500   8 stations, mean/dev wait (mins)     0.00     0.00 toolong      0   0.00     0   0.00     0   0.00
'
'OnePct: toolong space filler
'
'OnePct:    2 XXX00500                 21.20      10101     500     235  8   10.50 HH    0 HH
'
'OnePct:   0    2 XXX00500                    500   9 stations, mean/dev wait (mins)     0.00     0.00 toolong      0   0.00     0   0.00     0   0.00
'
'OnePct:   1    2 XXX00500                    500   9 stations, mean/dev wait (mins)     0.00     0.00 toolong      0   0.00     0   0.00     0   0.00
'
'OnePct:   2    2 XXX00500                    500   9 stations, mean/dev wait (mins)     0.00     0.00 toolong      0   0.00     0   0.00     0   0.00
'
'OnePct: toolong space filler
'
'OnePct:    2 XXX00500                 21.20      10101     500     235  8   10.50 HH    0 HH
'
'OnePct:   0    2 XXX00500                    500  10 stations, mean/dev wait (mins)     0.00     0.00 toolong      0   0.00     0   0.00     0   0.00
'
'OnePct:   1    2 XXX00500                    500  10 stations, mean/dev wait (mins)     0.00     0.00 toolong      0   0.00     0   0.00     0   0.00
'
'OnePct:   2    2 XXX00500                    500  10 stations, mean/dev wait (mins)     0.00     0.00 toolong      0   0.00     0   0.00     0   0.00
'
'OnePct: toolong space filler
'
'OnePct:    2 XXX00500                 21.20      10101     500     235  8   10.50 HH    0 HH
'
'OnePct:   0    2 XXX00500                    500  11 stations, mean/dev wait (mins)     0.00     0.00 toolong      0   0.00     0   0.00     0   0.00
'
'OnePct:   1    2 XXX00500                    500  11 stations, mean/dev wait (mins)     0.00     0.00 toolong      0   0.00     0   0.00     0   0.00
'
'OnePct:   2    2 XXX00500                    500  11 stations, mean/dev wait (mins)     0.00     0.00 toolong      0   0.00     0   0.00     0   0.00
'
'OnePct: toolong space filler
'
'OnePct:    2 XXX00500                 21.20      10101     500     235  8   10.50 HH    0 HH
'
'OnePct:   0    2 XXX00500                    500  12 stations, mean/dev wait (mins)     0.00     0.00 toolong      0   0.00     0   0.00     0   0.00
'
'OnePct:   1    2 XXX00500                    500  12 stations, mean/dev wait (mins)     0.00     0.00 toolong      0   0.00     0   0.00     0   0.00
'
'OnePct:   2    2 XXX00500                    500  12 stations, mean/dev wait (mins)     0.00     0.00 toolong      0   0.00     0   0.00     0   0.00
'
'OnePct: toolong space filler
'
'OnePct:    2 XXX00500                 21.20      10101     500     235  8   10.50 HH    0 HH
'
'OnePct:   0    2 XXX00500                    500  13 stations, mean/dev wait (mins)     0.00     0.00 toolong      0   0.00     0   0.00     0   0.00
'
'OnePct:   1    2 XXX00500                    500  13 stations, mean/dev wait (mins)     0.00     0.00 toolong      0   0.00     0   0.00     0   0.00
'
'OnePct:   2    2 XXX00500                    500  13 stations, mean/dev wait (mins)     0.00     0.00 toolong      0   0.00     0   0.00     0   0.00
'
'OnePct: toolong space filler
'
'OnePct:    2 XXX00500                 21.20      10101     500     235  8   10.50 HH    0 HH
'
'OnePct:   0    2 XXX00500                    500  14 stations, mean/dev wait (mins)     0.00     0.00 toolong      0   0.00     0   0.00     0   0.00
'
'OnePct:   1    2 XXX00500                    500  14 stations, mean/dev wait (mins)     0.00     0.00 toolong      0   0.00     0   0.00     0   0.00
'
'OnePct:   2    2 XXX00500                    500  14 stations, mean/dev wait (mins)     0.00     0.00 toolong      0   0.00     0   0.00     0   0.00
'
'OnePct: toolong space filler
'
'SIM: RunSimulation for pct 
SIM:    3 XXX00900                 22.20      10101     900     235  8   10.70 HH    0 HH
'
'OnePct:    3 XXX00900                 22.20      10101     900     235  8   10.70 HH    0 HH
'
'OnePct:   0    3 XXX00900                    900   2 stations, mean/dev wait (mins)    72.76    29.91 toolong    794  88.22   768  85.33   732  81.33
'
'OnePct:   1    3 XXX00900                    900   2 stations, mean/dev wait (mins)    65.54    25.40 toolong    792  88.00   750  83.33   675  75.00
'
'OnePct:   2    3 XXX00900                    900   2 stations, mean/dev wait (mins)    69.33    27.37 toolong    821  91.22   790  87.78   693  77.00
'
'OnePct: toolong space filler
'
'OnePct:    3 XXX00900                 22.20      10101     900     235  8   10.70 HH    0 HH
'
'OnePct:   0    3 XXX00900                    900   3 stations, mean/dev wait (mins)     3.19     3.74 toolong      0   0.00     0   0.00     0   0.00
'
'OnePct:   1    3 XXX00900                    900   3 stations, mean/dev wait (mins)     3.91     4.78 toolong      0   0.00     0   0.00     0   0.00
'
'OnePct:   2    3 XXX00900                    900   3 stations, mean/dev wait (mins)     7.16     7.44 toolong      0   0.00     0   0.00     0   0.00
'
'OnePct: toolong space filler
'
'OnePct:    3 XXX00900                 22.20      10101     900     235  8   10.70 HH    0 HH
'
'OnePct:   0    3 XXX00900                    900   4 stations, mean/dev wait (mins)     0.81     1.45 toolong      0   0.00     0   0.00     0   0.00
'
'OnePct:   1    3 XXX00900                    900   4 stations, mean/dev wait (mins)     0.53     1.00 toolong      0   0.00     0   0.00     0   0.00
'
'OnePct:   2    3 XXX00900                    900   4 stations, mean/dev wait (mins)     0.44     0.97 toolong      0   0.00     0   0.00     0   0.00
'
'OnePct: toolong space filler
'
'OnePct:    3 XXX00900                 22.20      10101     900     235  8   10.70 HH    0 HH
'
'OnePct:   0    3 XXX00900                    900   5 stations, mean/dev wait (mins)     0.35     0.85 toolong      0   0.00     0   0.00     0   0.00
'
'OnePct:   1    3 XXX00900                    900   5 stations, mean/dev wait (mins)     0.29     0.72 toolong      0   0.00     0   0.00     0   0.00
'
'OnePct:   2    3 XXX00900                    900   5 stations, mean/dev wait (mins)     0.12     0.38 toolong      0   0.00     0   0.00     0   0.00
'
'OnePct: toolong space filler
'
'OnePct:    3 XXX00900                 22.20      10101     900     235  8   10.70 HH    0 HH
'
'OnePct:   0    3 XXX00900                    900   6 stations, mean/dev wait (mins)     0.06     0.25 toolong      0   0.00     0   0.00     0   0.00
'
'OnePct:   1    3 XXX00900                    900   6 stations, mean/dev wait (mins)     0.05     0.24 toolong      0   0.00     0   0.00     0   0.00
'
'OnePct:   2    3 XXX00900                    900   6 stations, mean/dev wait (mins)     0.09     0.36 toolong      0   0.00     0   0.00     0   0.00
'
'OnePct: toolong space filler
'
'OnePct:    3 XXX00900                 22.20      10101     900     235  8   10.70 HH    0 HH
'
'OnePct:   0    3 XXX00900                    900   7 stations, mean/dev wait (mins)     0.02     0.11 toolong      0   0.00     0   0.00     0   0.00
'
'OnePct:   1    3 XXX00900                    900   7 stations, mean/dev wait (mins)     0.01     0.05 toolong      0   0.00     0   0.00     0   0.00
'
'OnePct:   2    3 XXX00900                    900   7 stations, mean/dev wait (mins)     0.04     0.21 toolong      0   0.00     0   0.00     0   0.00
'
'OnePct: toolong space filler
'
'OnePct:    3 XXX00900                 22.20      10101     900     235  8   10.70 HH    0 HH
'
'OnePct:   0    3 XXX00900                    900   8 stations, mean/dev wait (mins)     0.00     0.01 toolong      0   0.00     0   0.00     0   0.00
'
'OnePct:   1    3 XXX00900                    900   8 stations, mean/dev wait (mins)     0.00     0.03 toolong      0   0.00     0   0.00     0   0.00
'
'OnePct:   2    3 XXX00900                    900   8 stations, mean/dev wait (mins)     0.00     0.03 toolong      0   0.00     0   0.00     0   0.00
'
'OnePct: toolong space filler
'
'OnePct:    3 XXX00900                 22.20      10101     900     235  8   10.70 HH    0 HH
'
'OnePct:   0    3 XXX00900                    900   9 stations, mean/dev wait (mins)     0.01     0.04 toolong      0   0.00     0   0.00     0   0.00
'
'OnePct:   1    3 XXX00900                    900   9 stations, mean/dev wait (mins)     0.00     0.00 toolong      0   0.00     0   0.00     0   0.00
'
'OnePct:   2    3 XXX00900                    900   9 stations, mean/dev wait (mins)     0.00     0.04 toolong      0   0.00     0   0.00     0   0.00
'
'OnePct: toolong space filler
'
'OnePct:    3 XXX00900                 22.20      10101     900     235  8   10.70 HH    0 HH
'
'OnePct:   0    3 XXX00900                    900  10 stations, mean/dev wait (mins)     0.00     0.00 toolong      0   0.00     0   0.00     0   0.00
'
'OnePct:   1    3 XXX00900                    900  10 stations, mean/dev wait (mins)     0.00     0.00 toolong      0   0.00     0   0.00     0   0.00
'
'OnePct:   2    3 XXX00900                    900  10 stations, mean/dev wait (mins)     0.00     0.01 toolong      0   0.00     0   0.00     0   0.00
'
'OnePct: toolong space filler
'
'OnePct:    3 XXX00900                 22.20      10101     900     235  8   10.70 HH    0 HH
'
'OnePct:   0    3 XXX00900                    900  11 stations, mean/dev wait (mins)     0.00     0.00 toolong      0   0.00     0   0.00     0   0.00
'
'OnePct:   1    3 XXX00900                    900  11 stations, mean/dev wait (mins)     0.00     0.01 toolong      0   0.00     0   0.00     0   0.00
'
'OnePct:   2    3 XXX00900                    900  11 stations, mean/dev wait (mins)     0.00     0.00 toolong      0   0.00     0   0.00     0   0.00
'
'OnePct: toolong space filler
'
'OnePct:    3 XXX00900                 22.20      10101     900     235  8   10.70 HH    0 HH
'
'OnePct:   0    3 XXX00900                    900  12 stations, mean/dev wait (mins)     0.00     0.00 toolong      0   0.00     0   0.00     0   0.00
'
'OnePct:   1    3 XXX00900                    900  12 stations, mean/dev wait (mins)     0.00     0.00 toolong      0   0.00     0   0.00     0   0.00
'
'OnePct:   2    3 XXX00900                    900  12 stations, mean/dev wait (mins)     0.00     0.00 toolong      0   0.00     0   0.00     0   0.00
'
'OnePct: toolong space filler
'
'OnePct:    3 XXX00900                 22.20      10101     900     235  8   10.70 HH    0 HH
'
'OnePct:   0    3 XXX00900                    900  13 stations, mean/dev wait (mins)     0.00     0.00 toolong      0   0.00     0   0.00     0   0.00
'
'OnePct:   1    3 XXX00900                    900  13 stations, mean/dev wait (mins)     0.00     0.00 toolong      0   0.00     0   0.00     0   0.00
'
'OnePct:   2    3 XXX00900                    900  13 stations, mean/dev wait (mins)     0.00     0.00 toolong      0   0.00     0   0.00     0   0.00
'
'OnePct: toolong space filler
'
'OnePct:    3 XXX00900                 22.20      10101     900     235  8   10.70 HH    0 HH
'
'OnePct:   0    3 XXX00900                    900  14 stations, mean/dev wait (mins)     0.00     0.00 toolong      0   0.00     0   0.00     0   0.00
'
'OnePct:   1    3 XXX00900                    900  14 stations, mean/dev wait (mins)     0.00     0.00 toolong      0   0.00     0   0.00     0   0.00
'
'OnePct:   2    3 XXX00900                    900  14 stations, mean/dev wait (mins)     0.00     0.00 toolong      0   0.00     0   0.00     0   0.00
'
'OnePct: toolong space filler
'
'OnePct:    3 XXX00900                 22.20      10101     900     235  8   10.70 HH    0 HH
'
'OnePct:   0    3 XXX00900                    900  15 stations, mean/dev wait (mins)     0.00     0.00 toolong      0   0.00     0   0.00     0   0.00
'
'OnePct:   1    3 XXX00900                    900  15 stations, mean/dev wait (mins)     0.00     0.00 toolong      0   0.00     0   0.00     0   0.00
'
'OnePct:   2    3 XXX00900                    900  15 stations, mean/dev wait (mins)     0.00     0.00 toolong      0   0.00     0   0.00     0   0.00
'
'OnePct: toolong space filler
'
'SIM: RunSimulation for pct 
SIM:    4 XXX01200                 23.20      10101    1200     235  8   10.90 HH    0 HH
'
'OnePct:    4 XXX01200                 23.20      10101    1200     235  8   10.90 HH    0 HH
'
'OnePct:   0    4 XXX01200                   1200   2 stations, mean/dev wait (mins)   224.65   109.84 toolong   1147  95.58  1113  92.75  1089  90.75
'
'OnePct:   1    4 XXX01200                   1200   2 stations, mean/dev wait (mins)   205.19    94.09 toolong   1157  96.42  1142  95.17  1100  91.67
'
'OnePct:   2    4 XXX01200                   1200   2 stations, mean/dev wait (mins)   190.29    85.29 toolong   1160  96.67  1144  95.33  1121  93.42
'
'OnePct: toolong space filler
'
'OnePct:    4 XXX01200                 23.20      10101    1200     235  8   10.90 HH    0 HH
'
'OnePct:   0    4 XXX01200                   1200   3 stations, mean/dev wait (mins)    20.79    18.38 toolong    370  30.83   199  16.58   108   9.00
'
'OnePct:   1    4 XXX01200                   1200   3 stations, mean/dev wait (mins)    28.99    17.89 toolong    538  44.83   245  20.42   131  10.92
'
'OnePct:   2    4 XXX01200                   1200   3 stations, mean/dev wait (mins)    21.35    13.94 toolong    335  27.92   111   9.25    19   1.58
'
'OnePct: toolong space filler
'
'OnePct:    4 XXX01200                 23.20      10101    1200     235  8   10.90 HH    0 HH
'
'OnePct:   0    4 XXX01200                   1200   4 stations, mean/dev wait (mins)     2.87     3.82 toolong      0   0.00     0   0.00     0   0.00
'
'OnePct:   1    4 XXX01200                   1200   4 stations, mean/dev wait (mins)     2.34     2.91 toolong      0   0.00     0   0.00     0   0.00
'
'OnePct:   2    4 XXX01200                   1200   4 stations, mean/dev wait (mins)     3.60     3.81 toolong      0   0.00     0   0.00     0   0.00
'
'OnePct: toolong space filler
'
'OnePct:    4 XXX01200                 23.20      10101    1200     235  8   10.90 HH    0 HH
'
'OnePct:   0    4 XXX01200                   1200   5 stations, mean/dev wait (mins)     0.38     0.71 toolong      0   0.00     0   0.00     0   0.00
'
'OnePct:   1    4 XXX01200                   1200   5 stations, mean/dev wait (mins)     0.29     0.66 toolong      0   0.00     0   0.00     0   0.00
'
'OnePct:   2    4 XXX01200                   1200   5 stations, mean/dev wait (mins)     0.45     0.91 toolong      0   0.00     0   0.00     0   0.00
'
'OnePct: toolong space filler
'
'OnePct:    4 XXX01200                 23.20      10101    1200     235  8   10.90 HH    0 HH
'
'OnePct:   0    4 XXX01200                   1200   6 stations, mean/dev wait (mins)     0.17     0.69 toolong      0   0.00     0   0.00     0   0.00
'
'OnePct:   1    4 XXX01200                   1200   6 stations, mean/dev wait (mins)     0.18     0.47 toolong      0   0.00     0   0.00     0   0.00
'
'OnePct:   2    4 XXX01200                   1200   6 stations, mean/dev wait (mins)     0.13     0.37 toolong      0   0.00     0   0.00     0   0.00
'
'OnePct: toolong space filler
'
'OnePct:    4 XXX01200                 23.20      10101    1200     235  8   10.90 HH    0 HH
'
'OnePct:   0    4 XXX01200                   1200   7 stations, mean/dev wait (mins)     0.04     0.18 toolong      0   0.00     0   0.00     0   0.00
'
'OnePct:   1    4 XXX01200                   1200   7 stations, mean/dev wait (mins)     0.06     0.23 toolong      0   0.00     0   0.00     0   0.00
'
'OnePct:   2    4 XXX01200                   1200   7 stations, mean/dev wait (mins)     0.06     0.21 toolong      0   0.00     0   0.00     0   0.00
'
'OnePct: toolong space filler
'
'OnePct:    4 XXX01200                 23.20      10101    1200     235  8   10.90 HH    0 HH
'
'OnePct:   0    4 XXX01200                   1200   8 stations, mean/dev wait (mins)     0.02     0.10 toolong      0   0.00     0   0.00     0   0.00
'
'OnePct:   1    4 XXX01200                   1200   8 stations, mean/dev wait (mins)     0.01     0.05 toolong      0   0.00     0   0.00     0   0.00
'
'OnePct:   2    4 XXX01200                   1200   8 stations, mean/dev wait (mins)     0.03     0.13 toolong      0   0.00     0   0.00     0   0.00
'
'OnePct: toolong space filler
'
'OnePct:    4 XXX01200                 23.20      10101    1200     235  8   10.90 HH    0 HH
'
'OnePct:   0    4 XXX01200                   1200   9 stations, mean/dev wait (mins)     0.00     0.03 toolong      0   0.00     0   0.00     0   0.00
'
'OnePct:   1    4 XXX01200                   1200   9 stations, mean/dev wait (mins)     0.03     0.18 toolong      0   0.00     0   0.00     0   0.00
'
'OnePct:   2    4 XXX01200                   1200   9 stations, mean/dev wait (mins)     0.00     0.02 toolong      0   0.00     0   0.00     0   0.00
'
'OnePct: toolong space filler
'
'OnePct:    4 XXX01200                 23.20      10101    1200     235  8   10.90 HH    0 HH
'
'OnePct:   0    4 XXX01200                   1200  10 stations, mean/dev wait (mins)     0.00     0.01 toolong      0   0.00     0   0.00     0   0.00
'
'OnePct:   1    4 XXX01200                   1200  10 stations, mean/dev wait (mins)     0.02     0.12 toolong      0   0.00     0   0.00     0   0.00
'
'OnePct:   2    4 XXX01200                   1200  10 stations, mean/dev wait (mins)     0.00     0.02 toolong      0   0.00     0   0.00     0   0.00
'
'OnePct: toolong space filler
'
'OnePct:    4 XXX01200                 23.20      10101    1200     235  8   10.90 HH    0 HH
'
'OnePct:   0    4 XXX01200                   1200  11 stations, mean/dev wait (mins)     0.00     0.01 toolong      0   0.00     0   0.00     0   0.00
'
'OnePct:   1    4 XXX01200                   1200  11 stations, mean/dev wait (mins)     0.00     0.03 toolong      0   0.00     0   0.00     0   0.00
'
'OnePct:   2    4 XXX01200                   1200  11 stations, mean/dev wait (mins)     0.00     0.00 toolong      0   0.00     0   0.00     0   0.00
'
'OnePct: toolong space filler
'
'OnePct:    4 XXX01200                 23.20      10101    1200     235  8   10.90 HH    0 HH
'
'OnePct:   0    4 XXX01200                   1200  12 stations, mean/dev wait (mins)     0.00     0.00 toolong      0   0.00     0   0.00     0   0.00
'
'OnePct:   1    4 XXX01200                   1200  12 stations, mean/dev wait (mins)     0.00     0.00 toolong      0   0.00     0   0.00     0   0.00
'
'OnePct:   2    4 XXX01200                   1200  12 stations, mean/dev wait (mins)     0.00     0.00 toolong      0   0.00     0   0.00     0   0.00
'
'OnePct: toolong space filler
'
'OnePct:    4 XXX01200                 23.20      10101    1200     235  8   10.90 HH    0 HH
'
'OnePct:   0    4 XXX01200                   1200  13 stations, mean/dev wait (mins)     0.00     0.00 toolong      0   0.00     0   0.00     0   0.00
'
'OnePct:   1    4 XXX01200                   1200  13 stations, mean/dev wait (mins)     0.00     0.00 toolong      0   0.00     0   0.00     0   0.00
'
'OnePct:   2    4 XXX01200                   1200  13 stations, mean/dev wait (mins)     0.00     0.00 toolong      0   0.00     0   0.00     0   0.00
'
'OnePct: toolong space filler
'
'OnePct:    4 XXX01200                 23.20      10101    1200     235  8   10.90 HH    0 HH
'
'OnePct:   0    4 XXX01200                   1200  14 stations, mean/dev wait (mins)     0.00     0.00 toolong      0   0.00     0   0.00     0   0.00
'
'OnePct:   1    4 XXX01200                   1200  14 stations, mean/dev wait (mins)     0.00     0.00 toolong      0   0.00     0   0.00     0   0.00
'
'OnePct:   2    4 XXX01200                   1200  14 stations, mean/dev wait (mins)     0.01     0.07 toolong      0   0.00     0   0.00     0   0.00
'
'OnePct: toolong space filler
'
'OnePct:    4 XXX01200                 23.20      10101    1200     235  8   10.90 HH    0 HH
'
'OnePct:   0    4 XXX01200                   1200  15 stations, mean/dev wait (mins)     0.00     0.00 toolong      0   0.00     0   0.00     0   0.00
'
'OnePct:   1    4 XXX01200                   1200  15 stations, mean/dev wait (mins)     0.00     0.00 toolong      0   0.00     0   0.00     0   0.00
'
'OnePct:   2    4 XXX01200                   1200  15 stations, mean/dev wait (mins)     0.00     0.00 toolong      0   0.00     0   0.00     0   0.00
'
'OnePct: toolong space filler
'
'SIM: RunSimulation for pct 
SIM:    5 XXX01500                 24.20      10101    1500     235  8   10.70 HH    0 HH
'
'OnePct:    5 XXX01500                 24.20      10101    1500     235  8   10.70 HH    0 HH
'
'OnePct:   0    5 XXX01500                   1500   3 stations, mean/dev wait (mins)   100.46    46.84 toolong   1407  93.80  1379  91.93  1281  85.40
'
'OnePct:   1    5 XXX01500                   1500   3 stations, mean/dev wait (mins)    94.96    34.05 toolong   1430  95.33  1379  91.93  1316  87.73
'
'OnePct:   2    5 XXX01500                   1500   3 stations, mean/dev wait (mins)   111.87    45.61 toolong   1402  93.47  1341  89.40  1291  86.07
'
'OnePct: toolong space filler
'
'OnePct:    5 XXX01500                 24.20      10101    1500     235  8   10.70 HH    0 HH
'
'OnePct:   0    5 XXX01500                   1500   4 stations, mean/dev wait (mins)    15.22    10.55 toolong    127   8.47     0   0.00     0   0.00
'
'OnePct:   1    5 XXX01500                   1500   4 stations, mean/dev wait (mins)    17.97    13.03 toolong    340  22.67    42   2.80     0   0.00
'
'OnePct:   2    5 XXX01500                   1500   4 stations, mean/dev wait (mins)    15.79    12.18 toolong    197  13.13     0   0.00     0   0.00
'
'OnePct: toolong space filler
'
'OnePct:    5 XXX01500                 24.20      10101    1500     235  8   10.70 HH    0 HH
'
'OnePct:   0    5 XXX01500                   1500   5 stations, mean/dev wait (mins)     1.79     2.70 toolong      0   0.00     0   0.00     0   0.00
'
'OnePct:   1    5 XXX01500                   1500   5 stations, mean/dev wait (mins)     5.80     7.46 toolong      0   0.00     0   0.00     0   0.00
'
'OnePct:   2    5 XXX01500                   1500   5 stations, mean/dev wait (mins)     2.39     3.87 toolong      0   0.00     0   0.00     0   0.00
'
'OnePct: toolong space filler
'
'OnePct:    5 XXX01500                 24.20      10101    1500     235  8   10.70 HH    0 HH
'
'OnePct:   0    5 XXX01500                   1500   6 stations, mean/dev wait (mins)     0.52     0.91 toolong      0   0.00     0   0.00     0   0.00
'
'OnePct:   1    5 XXX01500                   1500   6 stations, mean/dev wait (mins)     0.64     1.17 toolong      0   0.00     0   0.00     0   0.00
'
'OnePct:   2    5 XXX01500                   1500   6 stations, mean/dev wait (mins)     0.43     0.84 toolong      0   0.00     0   0.00     0   0.00
'
'OnePct: toolong space filler
'
'OnePct:    5 XXX01500                 24.20      10101    1500     235  8   10.70 HH    0 HH
'
'OnePct:   0    5 XXX01500                   1500   7 stations, mean/dev wait (mins)     0.18     0.46 toolong      0   0.00     0   0.00     0   0.00
'
'OnePct:   1    5 XXX01500                   1500   7 stations, mean/dev wait (mins)     0.39     0.85 toolong      0   0.00     0   0.00     0   0.00
'
'OnePct:   2    5 XXX01500                   1500   7 stations, mean/dev wait (mins)     0.41     0.92 toolong      0   0.00     0   0.00     0   0.00
'
'OnePct: toolong space filler
'
'OnePct:    5 XXX01500                 24.20      10101    1500     235  8   10.70 HH    0 HH
'
'OnePct:   0    5 XXX01500                   1500   8 stations, mean/dev wait (mins)     0.13     0.47 toolong      0   0.00     0   0.00     0   0.00
'
'OnePct:   1    5 XXX01500                   1500   8 stations, mean/dev wait (mins)     0.05     0.23 toolong      0   0.00     0   0.00     0   0.00
'
'OnePct:   2    5 XXX01500                   1500   8 stations, mean/dev wait (mins)     0.12     0.45 toolong      0   0.00     0   0.00     0   0.00
'
'OnePct: toolong space filler
'
'OnePct:    5 XXX01500                 24.20      10101    1500     235  8   10.70 HH    0 HH
'
'OnePct:   0    5 XXX01500                   1500   9 stations, mean/dev wait (mins)     0.02     0.11 toolong      0   0.00     0   0.00     0   0.00
'
'OnePct:   1    5 XXX01500                   1500   9 stations, mean/dev wait (mins)     0.04     0.21 toolong      0   0.00     0   0.00     0   0.00
'
'OnePct:   2    5 XXX01500                   1500   9 stations, mean/dev wait (mins)     0.03     0.16 toolong      0   0.00     0   0.00     0   0.00
'
'OnePct: toolong space filler
'
'OnePct:    5 XXX01500                 24.20      10101    1500     235  8   10.70 HH    0 HH
'
'OnePct:   0    5 XXX01500                   1500  10 stations, mean/dev wait (mins)     0.01     0.11 toolong      0   0.00     0   0.00     0   0.00
'
'OnePct:   1    5 XXX01500                   1500  10 stations, mean/dev wait (mins)     0.00     0.03 toolong      0   0.00     0   0.00     0   0.00
'
'OnePct:   2    5 XXX01500                   1500  10 stations, mean/dev wait (mins)     0.01     0.04 toolong      0   0.00     0   0.00     0   0.00
'
'OnePct: toolong space filler
'
'OnePct:    5 XXX01500                 24.20      10101    1500     235  8   10.70 HH    0 HH
'
'OnePct:   0    5 XXX01500                   1500  11 stations, mean/dev wait (mins)     0.01     0.07 toolong      0   0.00     0   0.00     0   0.00
'
'OnePct:   1    5 XXX01500                   1500  11 stations, mean/dev wait (mins)     0.00     0.02 toolong      0   0.00     0   0.00     0   0.00
'
'OnePct:   2    5 XXX01500                   1500  11 stations, mean/dev wait (mins)     0.00     0.01 toolong      0   0.00     0   0.00     0   0.00
'
'OnePct: toolong space filler
'
'OnePct:    5 XXX01500                 24.20      10101    1500     235  8   10.70 HH    0 HH
'
'OnePct:   0    5 XXX01500                   1500  12 stations, mean/dev wait (mins)     0.00     0.01 toolong      0   0.00     0   0.00     0   0.00
'
'OnePct:   1    5 XXX01500                   1500  12 stations, mean/dev wait (mins)     0.00     0.03 toolong      0   0.00     0   0.00     0   0.00
'
'OnePct:   2    5 XXX01500                   1500  12 stations, mean/dev wait (mins)     0.00     0.03 toolong      0   0.00     0   0.00     0   0.00
'
'OnePct: toolong space filler
'
'OnePct:    5 XXX01500                 24.20      10101    1500     235  8   10.70 HH    0 HH
'
'OnePct:   0    5 XXX01500                   1500  13 stations, mean/dev wait (mins)     0.00     0.00 toolong      0   0.00     0   0.00     0   0.00
'
'OnePct:   1    5 XXX01500                   1500  13 stations, mean/dev wait (mins)     0.00     0.00 toolong      0   0.00     0   0.00     0   0.00
'
'OnePct:   2    5 XXX01500                   1500  13 stations, mean/dev wait (mins)     0.00     0.01 toolong      0   0.00     0   0.00     0   0.00
'
'OnePct: toolong space filler
'
'OnePct:    5 XXX01500                 24.20      10101    1500     235  8   10.70 HH    0 HH
'
'OnePct:   0    5 XXX01500                   1500  14 stations, mean/dev wait (mins)     0.00     0.00 toolong      0   0.00     0   0.00     0   0.00
'
'OnePct:   1    5 XXX01500                   1500  14 stations, mean/dev wait (mins)     0.00     0.00 toolong      0   0.00     0   0.00     0   0.00
'
'OnePct:   2    5 XXX01500                   1500  14 stations, mean/dev wait (mins)     0.00     0.02 toolong      0   0.00     0   0.00     0   0.00
'
'OnePct: toolong space filler
'
'OnePct:    5 XXX01500                 24.20      10101    1500     235  8   10.70 HH    0 HH
'
'OnePct:   0    5 XXX01500                   1500  15 stations, mean/dev wait (mins)     0.00     0.00 toolong      0   0.00     0   0.00     0   0.00
'
'OnePct:   1    5 XXX01500                   1500  15 stations, mean/dev wait (mins)     0.00     0.00 toolong      0   0.00     0   0.00     0   0.00
'
'OnePct:   2    5 XXX01500                   1500  15 stations, mean/dev wait (mins)     0.00     0.00 toolong      0   0.00     0   0.00     0   0.00
'
'OnePct: toolong space filler
'
'OnePct:    5 XXX01500                 24.20      10101    1500     235  8   10.70 HH    0 HH
'
'OnePct:   0    5 XXX01500                   1500  16 stations, mean/dev wait (mins)     0.00     0.00 toolong      0   0.00     0   0.00     0   0.00
'
'OnePct:   1    5 XXX01500                   1500  16 stations, mean/dev wait (mins)     0.00     0.00 toolong      0   0.00     0   0.00     0   0.00
'
'OnePct:   2    5 XXX01500                   1500  16 stations, mean/dev wait (mins)     0.00     0.02 toolong      0   0.00     0   0.00     0   0.00
'
'OnePct: toolong space filler
'
'SIM: RunSimulation for pct 
SIM:    6 XXX01800                 25.20      10101    1800     235  8   10.50 HH    0 HH
'
'OnePct:    6 XXX01800                 25.20      10101    1800     235  8   10.50 HH    0 HH
'
'OnePct:   0    6 XXX01800                   1800   4 stations, mean/dev wait (mins)    62.26    22.16 toolong   1651  91.72  1515  84.17  1296  72.00
'
'OnePct:   1    6 XXX01800                   1800   4 stations, mean/dev wait (mins)    61.87    22.61 toolong   1639  91.06  1550  86.11  1240  68.89
'
'OnePct:   2    6 XXX01800                   1800   4 stations, mean/dev wait (mins)    75.71    31.98 toolong   1641  91.17  1521  84.50  1388  77.11
'
'OnePct: toolong space filler
'
'OnePct:    6 XXX01800                 25.20      10101    1800     235  8   10.50 HH    0 HH
'
'OnePct:   0    6 XXX01800                   1800   5 stations, mean/dev wait (mins)    10.90    10.44 toolong     86   4.78     0   0.00     0   0.00
'
'OnePct:   1    6 XXX01800                   1800   5 stations, mean/dev wait (mins)    11.35     9.95 toolong     94   5.22     0   0.00     0   0.00
'
'OnePct:   2    6 XXX01800                   1800   5 stations, mean/dev wait (mins)    11.75    11.76 toolong    158   8.78     0   0.00     0   0.00
'
'OnePct: toolong space filler
'
'OnePct:    6 XXX01800                 25.20      10101    1800     235  8   10.50 HH    0 HH
'
'OnePct:   0    6 XXX01800                   1800   6 stations, mean/dev wait (mins)     1.99     2.58 toolong      0   0.00     0   0.00     0   0.00
'
'OnePct:   1    6 XXX01800                   1800   6 stations, mean/dev wait (mins)     4.38     5.60 toolong      0   0.00     0   0.00     0   0.00
'
'OnePct:   2    6 XXX01800                   1800   6 stations, mean/dev wait (mins)     1.58     2.54 toolong      0   0.00     0   0.00     0   0.00
'
'OnePct: toolong space filler
'
'OnePct:    6 XXX01800                 25.20      10101    1800     235  8   10.50 HH    0 HH
'
'OnePct:   0    6 XXX01800                   1800   7 stations, mean/dev wait (mins)     0.62     1.34 toolong      0   0.00     0   0.00     0   0.00
'
'OnePct:   1    6 XXX01800                   1800   7 stations, mean/dev wait (mins)     0.64     1.15 toolong      0   0.00     0   0.00     0   0.00
'
'OnePct:   2    6 XXX01800                   1800   7 stations, mean/dev wait (mins)     0.69     1.17 toolong      0   0.00     0   0.00     0   0.00
'
'OnePct: toolong space filler
'
'OnePct:    6 XXX01800                 25.20      10101    1800     235  8   10.50 HH    0 HH
'
'OnePct:   0    6 XXX01800                   1800   8 stations, mean/dev wait (mins)     0.29     0.69 toolong      0   0.00     0   0.00     0   0.00
'
'OnePct:   1    6 XXX01800                   1800   8 stations, mean/dev wait (mins)     0.15     0.44 toolong      0   0.00     0   0.00     0   0.00
'
'OnePct:   2    6 XXX01800                   1800   8 stations, mean/dev wait (mins)     0.25     0.54 toolong      0   0.00     0   0.00     0   0.00
'
'OnePct: toolong space filler
'
'OnePct:    6 XXX01800                 25.20      10101    1800     235  8   10.50 HH    0 HH
'
'OnePct:   0    6 XXX01800                   1800   9 stations, mean/dev wait (mins)     0.10     0.32 toolong      0   0.00     0   0.00     0   0.00
'
'OnePct:   1    6 XXX01800                   1800   9 stations, mean/dev wait (mins)     0.17     0.53 toolong      0   0.00     0   0.00     0   0.00
'
'OnePct:   2    6 XXX01800                   1800   9 stations, mean/dev wait (mins)     0.12     0.40 toolong      0   0.00     0   0.00     0   0.00
'
'OnePct: toolong space filler
'
'OnePct:    6 XXX01800                 25.20      10101    1800     235  8   10.50 HH    0 HH
'
'OnePct:   0    6 XXX01800                   1800  10 stations, mean/dev wait (mins)     0.02     0.08 toolong      0   0.00     0   0.00     0   0.00
'
'OnePct:   1    6 XXX01800                   1800  10 stations, mean/dev wait (mins)     0.06     0.27 toolong      0   0.00     0   0.00     0   0.00
'
'OnePct:   2    6 XXX01800                   1800  10 stations, mean/dev wait (mins)     0.08     0.38 toolong      0   0.00     0   0.00     0   0.00
'
'OnePct: toolong space filler
'
'OnePct:    6 XXX01800                 25.20      10101    1800     235  8   10.50 HH    0 HH
'
'OnePct:   0    6 XXX01800                   1800  11 stations, mean/dev wait (mins)     0.01     0.08 toolong      0   0.00     0   0.00     0   0.00
'
'OnePct:   1    6 XXX01800                   1800  11 stations, mean/dev wait (mins)     0.01     0.08 toolong      0   0.00     0   0.00     0   0.00
'
'OnePct:   2    6 XXX01800                   1800  11 stations, mean/dev wait (mins)     0.02     0.11 toolong      0   0.00     0   0.00     0   0.00
'
'OnePct: toolong space filler
'
'OnePct:    6 XXX01800                 25.20      10101    1800     235  8   10.50 HH    0 HH
'
'OnePct:   0    6 XXX01800                   1800  12 stations, mean/dev wait (mins)     0.00     0.03 toolong      0   0.00     0   0.00     0   0.00
'
'OnePct:   1    6 XXX01800                   1800  12 stations, mean/dev wait (mins)     0.00     0.03 toolong      0   0.00     0   0.00     0   0.00
'
'OnePct:   2    6 XXX01800                   1800  12 stations, mean/dev wait (mins)     0.02     0.16 toolong      0   0.00     0   0.00     0   0.00
'
'OnePct: toolong space filler
'
'OnePct:    6 XXX01800                 25.20      10101    1800     235  8   10.50 HH    0 HH
'
'OnePct:   0    6 XXX01800                   1800  13 stations, mean/dev wait (mins)     0.00     0.02 toolong      0   0.00     0   0.00     0   0.00
'
'OnePct:   1    6 XXX01800                   1800  13 stations, mean/dev wait (mins)     0.00     0.01 toolong      0   0.00     0   0.00     0   0.00
'
'OnePct:   2    6 XXX01800                   1800  13 stations, mean/dev wait (mins)     0.01     0.05 toolong      0   0.00     0   0.00     0   0.00
'
'OnePct: toolong space filler
'
'OnePct:    6 XXX01800                 25.20      10101    1800     235  8   10.50 HH    0 HH
'
'OnePct:   0    6 XXX01800                   1800  14 stations, mean/dev wait (mins)     0.00     0.01 toolong      0   0.00     0   0.00     0   0.00
'
'OnePct:   1    6 XXX01800                   1800  14 stations, mean/dev wait (mins)     0.00     0.03 toolong      0   0.00     0   0.00     0   0.00
'
'OnePct:   2    6 XXX01800                   1800  14 stations, mean/dev wait (mins)     0.00     0.01 toolong      0   0.00     0   0.00     0   0.00
'
'OnePct: toolong space filler
'
'OnePct:    6 XXX01800                 25.20      10101    1800     235  8   10.50 HH    0 HH
'
'OnePct:   0    6 XXX01800                   1800  15 stations, mean/dev wait (mins)     0.00     0.00 toolong      0   0.00     0   0.00     0   0.00
'
'OnePct:   1    6 XXX01800                   1800  15 stations, mean/dev wait (mins)     0.00     0.00 toolong      0   0.00     0   0.00     0   0.00
'
'OnePct:   2    6 XXX01800                   1800  15 stations, mean/dev wait (mins)     0.00     0.02 toolong      0   0.00     0   0.00     0   0.00
'
'OnePct: toolong space filler
'
'OnePct:    6 XXX01800                 25.20      10101    1800     235  8   10.50 HH    0 HH
'
'OnePct:   0    6 XXX01800                   1800  16 stations, mean/dev wait (mins)     0.00     0.00 toolong      0   0.00     0   0.00     0   0.00
'
'OnePct:   1    6 XXX01800                   1800  16 stations, mean/dev wait (mins)     0.00     0.00 toolong      0   0.00     0   0.00     0   0.00
'
'OnePct:   2    6 XXX01800                   1800  16 stations, mean/dev wait (mins)     0.00     0.00 toolong      0   0.00     0   0.00     0   0.00
'
'OnePct: toolong space filler
'
'OnePct:    6 XXX01800                 25.20      10101    1800     235  8   10.50 HH    0 HH
'
'OnePct:   0    6 XXX01800                   1800  17 stations, mean/dev wait (mins)     0.00     0.00 toolong      0   0.00     0   0.00     0   0.00
'
'OnePct:   1    6 XXX01800                   1800  17 stations, mean/dev wait (mins)     0.00     0.01 toolong      0   0.00     0   0.00     0   0.00
'
'OnePct:   2    6 XXX01800                   1800  17 stations, mean/dev wait (mins)     0.00     0.00 toolong      0   0.00     0   0.00     0   0.00
'
'OnePct: toolong space filler
'
'SIM: RunSimulation for pct 
SIM:    7 XXX02100                 26.20      10101    2100     235  8   10.30 HH    0 HH
'
'OnePct:    7 XXX02100                 26.20      10101    2100     235  8   10.30 HH    0 HH
'
'OnePct:   0    7 XXX02100                   2100   4 stations, mean/dev wait (mins)   129.15    52.90 toolong   1956  93.14  1920  91.43  1865  88.81
'
'OnePct:   1    7 XXX02100                   2100   4 stations, mean/dev wait (mins)   127.37    63.10 toolong   1948  92.76  1867  88.90  1836  87.43
'
'OnePct:   2    7 XXX02100                   2100   4 stations, mean/dev wait (mins)   120.24    49.90 toolong   1944  92.57  1893  90.14  1865  88.81
'
'OnePct: toolong space filler
'
'OnePct:    7 XXX02100                 26.20      10101    2100     235  8   10.30 HH    0 HH
'
'OnePct:   0    7 XXX02100                   2100   5 stations, mean/dev wait (mins)    32.23    19.99 toolong   1032  49.14   778  37.05   436  20.76
'
'OnePct:   1    7 XXX02100                   2100   5 stations, mean/dev wait (mins)    46.55    21.23 toolong   1501  71.48  1187  56.52   939  44.71
'
'OnePct:   2    7 XXX02100                   2100   5 stations, mean/dev wait (mins)    42.78    19.51 toolong   1455  69.29  1040  49.52   751  35.76
'
'OnePct: toolong space filler
'
'OnePct:    7 XXX02100                 26.20      10101    2100     235  8   10.30 HH    0 HH
'
'OnePct:   0    7 XXX02100                   2100   6 stations, mean/dev wait (mins)    10.98     9.19 toolong     53   2.52     0   0.00     0   0.00
'
'OnePct:   1    7 XXX02100                   2100   6 stations, mean/dev wait (mins)    11.25     9.49 toolong    103   4.90     0   0.00     0   0.00
'
'OnePct:   2    7 XXX02100                   2100   6 stations, mean/dev wait (mins)    10.52     8.37 toolong      0   0.00     0   0.00     0   0.00
'
'OnePct: toolong space filler
'
'OnePct:    7 XXX02100                 26.20      10101    2100     235  8   10.30 HH    0 HH
'
'OnePct:   0    7 XXX02100                   2100   7 stations, mean/dev wait (mins)     3.02     3.75 toolong      0   0.00     0   0.00     0   0.00
'
'OnePct:   1    7 XXX02100                   2100   7 stations, mean/dev wait (mins)     2.99     3.24 toolong      0   0.00     0   0.00     0   0.00
'
'OnePct:   2    7 XXX02100                   2100   7 stations, mean/dev wait (mins)     2.66     4.11 toolong      0   0.00     0   0.00     0   0.00
'
'OnePct: toolong space filler
'
'OnePct:    7 XXX02100                 26.20      10101    2100     235  8   10.30 HH    0 HH
'
'OnePct:   0    7 XXX02100                   2100   8 stations, mean/dev wait (mins)     0.61     1.11 toolong      0   0.00     0   0.00     0   0.00
'
'OnePct:   1    7 XXX02100                   2100   8 stations, mean/dev wait (mins)     0.61     1.09 toolong      0   0.00     0   0.00     0   0.00
'
'OnePct:   2    7 XXX02100                   2100   8 stations, mean/dev wait (mins)     0.50     0.91 toolong      0   0.00     0   0.00     0   0.00
'
'OnePct: toolong space filler
'
'OnePct:    7 XXX02100                 26.20      10101    2100     235  8   10.30 HH    0 HH
'
'OnePct:   0    7 XXX02100                   2100   9 stations, mean/dev wait (mins)     0.32     0.65 toolong      0   0.00     0   0.00     0   0.00
'
'OnePct:   1    7 XXX02100                   2100   9 stations, mean/dev wait (mins)     0.30     0.75 toolong      0   0.00     0   0.00     0   0.00
'
'OnePct:   2    7 XXX02100                   2100   9 stations, mean/dev wait (mins)     0.44     0.83 toolong      0   0.00     0   0.00     0   0.00
'
'OnePct: toolong space filler
'
'OnePct:    7 XXX02100                 26.20      10101    2100     235  8   10.30 HH    0 HH
'
'OnePct:   0    7 XXX02100                   2100  10 stations, mean/dev wait (mins)     0.25     0.77 toolong      0   0.00     0   0.00     0   0.00
'
'OnePct:   1    7 XXX02100                   2100  10 stations, mean/dev wait (mins)     0.13     0.41 toolong      0   0.00     0   0.00     0   0.00
'
'OnePct:   2    7 XXX02100                   2100  10 stations, mean/dev wait (mins)     0.15     0.37 toolong      0   0.00     0   0.00     0   0.00
'
'OnePct: toolong space filler
'
'OnePct:    7 XXX02100                 26.20      10101    2100     235  8   10.30 HH    0 HH
'
'OnePct:   0    7 XXX02100                   2100  11 stations, mean/dev wait (mins)     0.05     0.24 toolong      0   0.00     0   0.00     0   0.00
'
'OnePct:   1    7 XXX02100                   2100  11 stations, mean/dev wait (mins)     0.04     0.16 toolong      0   0.00     0   0.00     0   0.00
'
'OnePct:   2    7 XXX02100                   2100  11 stations, mean/dev wait (mins)     0.02     0.11 toolong      0   0.00     0   0.00     0   0.00
'
'OnePct: toolong space filler
'
'OnePct:    7 XXX02100                 26.20      10101    2100     235  8   10.30 HH    0 HH
'
'OnePct:   0    7 XXX02100                   2100  12 stations, mean/dev wait (mins)     0.02     0.11 toolong      0   0.00     0   0.00     0   0.00
'
'OnePct:   1    7 XXX02100                   2100  12 stations, mean/dev wait (mins)     0.01     0.07 toolong      0   0.00     0   0.00     0   0.00
'
'OnePct:   2    7 XXX02100                   2100  12 stations, mean/dev wait (mins)     0.03     0.16 toolong      0   0.00     0   0.00     0   0.00
'
'OnePct: toolong space filler
'
'OnePct:    7 XXX02100                 26.20      10101    2100     235  8   10.30 HH    0 HH
'
'OnePct:   0    7 XXX02100                   2100  13 stations, mean/dev wait (mins)     0.02     0.13 toolong      0   0.00     0   0.00     0   0.00
'
'OnePct:   1    7 XXX02100                   2100  13 stations, mean/dev wait (mins)     0.00     0.04 toolong      0   0.00     0   0.00     0   0.00
'
'OnePct:   2    7 XXX02100                   2100  13 stations, mean/dev wait (mins)     0.00     0.04 toolong      0   0.00     0   0.00     0   0.00
'
'OnePct: toolong space filler
'
'OnePct:    7 XXX02100                 26.20      10101    2100     235  8   10.30 HH    0 HH
'
'OnePct:   0    7 XXX02100                   2100  14 stations, mean/dev wait (mins)     0.01     0.05 toolong      0   0.00     0   0.00     0   0.00
'
'OnePct:   1    7 XXX02100                   2100  14 stations, mean/dev wait (mins)     0.00     0.02 toolong      0   0.00     0   0.00     0   0.00
'
'OnePct:   2    7 XXX02100                   2100  14 stations, mean/dev wait (mins)     0.00     0.01 toolong      0   0.00     0   0.00     0   0.00
'
'OnePct: toolong space filler
'
'OnePct:    7 XXX02100                 26.20      10101    2100     235  8   10.30 HH    0 HH
'
'OnePct:   0    7 XXX02100                   2100  15 stations, mean/dev wait (mins)     0.00     0.02 toolong      0   0.00     0   0.00     0   0.00
'
'OnePct:   1    7 XXX02100                   2100  15 stations, mean/dev wait (mins)     0.00     0.03 toolong      0   0.00     0   0.00     0   0.00
'
'OnePct:   2    7 XXX02100                   2100  15 stations, mean/dev wait (mins)     0.00     0.02 toolong      0   0.00     0   0.00     0   0.00
'
'OnePct: toolong space filler
'
'OnePct:    7 XXX02100                 26.20      10101    2100     235  8   10.30 HH    0 HH
'
'OnePct:   0    7 XXX02100                   2100  16 stations, mean/dev wait (mins)     0.00     0.01 toolong      0   0.00     0   0.00     0   0.00
'
'OnePct:   1    7 XXX02100                   2100  16 stations, mean/dev wait (mins)     0.00     0.01 toolong      0   0.00     0   0.00     0   0.00
'
'OnePct:   2    7 XXX02100                   2100  16 stations, mean/dev wait (mins)     0.00     0.00 toolong      0   0.00     0   0.00     0   0.00
'
'OnePct: toolong space filler
'
'OnePct:    7 XXX02100                 26.20      10101    2100     235  8   10.30 HH    0 HH
'
'OnePct:   0    7 XXX02100                   2100  17 stations, mean/dev wait (mins)     0.00     0.00 toolong      0   0.00     0   0.00     0   0.00
'
'OnePct:   1    7 XXX02100                   2100  17 stations, mean/dev wait (mins)     0.00     0.00 toolong      0   0.00     0   0.00     0   0.00
'
'OnePct:   2    7 XXX02100                   2100  17 stations, mean/dev wait (mins)     0.00     0.00 toolong      0   0.00     0   0.00     0   0.00
'
'OnePct: toolong space filler
'
'SIM: RunSimulation for pct 
SIM:    8 XXX02400                 27.20      10101    2400     235  8   10.10 HH    0   1   2 HH
'
'OnePct:    8 XXX02400                 27.20      10101    2400     235  8   10.10 HH    0   1   2 HH
'
'OnePct:   0    8 XXX02400                   2400   5 stations, mean/dev wait (mins)   107.93    44.11 toolong   2194  91.42  2152  89.67  2098  87.42
'
'OnePct:   1    8 XXX02400                   2400   5 stations, mean/dev wait (mins)    82.30    32.48 toolong   2185  91.04  2145  89.38  2070  86.25
'
'OnePct:   2    8 XXX02400                   2400   5 stations, mean/dev wait (mins)    84.23    36.42 toolong   2171  90.46  2117  88.21  2064  86.00
'
'OnePct: toolong space filler
'
'OnePct:    8 XXX02400                 27.20      10101    2400     235  8   10.10 HH    0   1   2 HH
'
'OnePct:   0    8 XXX02400                   2400   6 stations, mean/dev wait (mins)    22.01    13.39 toolong    788  32.83   170   7.08     0   0.00
'
'OnePct:   1    8 XXX02400                   2400   6 stations, mean/dev wait (mins)    17.60    12.12 toolong    388  16.17    87   3.62     0   0.00
'
'OnePct:   2    8 XXX02400                   2400   6 stations, mean/dev wait (mins)    23.78    15.43 toolong    819  34.12   408  17.00    87   3.62
'
'OnePct: toolong space filler
'
'OnePct:    8 XXX02400                 27.20      10101    2400     235  8   10.10 HH    0   1   2 HH
'
'OnePct:   0    8 XXX02400                   2400   7 stations, mean/dev wait (mins)     9.65     8.08 toolong      0   0.00     0   0.00     0   0.00
'
'OnePct:   1    8 XXX02400                   2400   7 stations, mean/dev wait (mins)     5.88     6.21 toolong      0   0.00     0   0.00     0   0.00
'
'OnePct:   2    8 XXX02400                   2400   7 stations, mean/dev wait (mins)     7.80     6.51 toolong      0   0.00     0   0.00     0   0.00
'
'OnePct: toolong space filler
'
'OnePct:    8 XXX02400                 27.20      10101    2400     235  8   10.10 HH    0   1   2 HH
'
'OnePct:   0    8 XXX02400                   2400   8 stations, mean/dev wait (mins)     2.94     3.70 toolong      0   0.00     0   0.00     0   0.00
'
'OnePct:   1    8 XXX02400                   2400   8 stations, mean/dev wait (mins)     4.76     5.57 toolong      0   0.00     0   0.00     0   0.00
'
'OnePct:   2    8 XXX02400                   2400   8 stations, mean/dev wait (mins)     2.57     2.95 toolong      0   0.00     0   0.00     0   0.00
'
'OnePct: toolong space filler
'
'OnePct:    8 XXX02400                 27.20      10101    2400     235  8   10.10 HH    0   1   2 HH
'
'OnePct:   0    8 XXX02400                   2400   9 stations, mean/dev wait (mins)     1.54     2.11 toolong      0   0.00     0   0.00     0   0.00
'
'OnePct:   1    8 XXX02400                   2400   9 stations, mean/dev wait (mins)     0.82     1.41 toolong      0   0.00     0   0.00     0   0.00
'
'OnePct:   2    8 XXX02400                   2400   9 stations, mean/dev wait (mins)     1.37     2.35 toolong      0   0.00     0   0.00     0   0.00
'
'OnePct: toolong space filler
'
'OnePct:    8 XXX02400                 27.20      10101    2400     235  8   10.10 HH    0   1   2 HH
'
'OnePct:   0    8 XXX02400                   2400  10 stations, mean/dev wait (mins)     0.36     0.81 toolong      0   0.00     0   0.00     0   0.00
'
'OnePct:   1    8 XXX02400                   2400  10 stations, mean/dev wait (mins)     0.45     0.88 toolong      0   0.00     0   0.00     0   0.00
'
'OnePct:   2    8 XXX02400                   2400  10 stations, mean/dev wait (mins)     0.26     0.66 toolong      0   0.00     0   0.00     0   0.00
'
'OnePct: toolong space filler
'
'OnePct:    8 XXX02400                 27.20      10101    2400     235  8   10.10 HH    0   1   2 HH
'
'OnePct:   0    8 XXX02400                   2400  11 stations, mean/dev wait (mins)     0.11     0.30 toolong      0   0.00     0   0.00     0   0.00
'
'OnePct:   1    8 XXX02400                   2400  11 stations, mean/dev wait (mins)     0.19     0.59 toolong      0   0.00     0   0.00     0   0.00
'
'OnePct:   2    8 XXX02400                   2400  11 stations, mean/dev wait (mins)     0.08     0.28 toolong      0   0.00     0   0.00     0   0.00
'
'OnePct: toolong space filler
'
'OnePct:    8 XXX02400                 27.20      10101    2400     235  8   10.10 HH    0   1   2 HH
'
'OnePct:   0    8 XXX02400                   2400  12 stations, mean/dev wait (mins)     0.07     0.25 toolong      0   0.00     0   0.00     0   0.00
'
'OnePct:   1    8 XXX02400                   2400  12 stations, mean/dev wait (mins)     0.03     0.12 toolong      0   0.00     0   0.00     0   0.00
'
'OnePct:   2    8 XXX02400                   2400  12 stations, mean/dev wait (mins)     0.03     0.13 toolong      0   0.00     0   0.00     0   0.00
'
'OnePct: toolong space filler
'
'OnePct:    8 XXX02400                 27.20      10101    2400     235  8   10.10 HH    0   1   2 HH
'
'OnePct:   0    8 XXX02400                   2400  13 stations, mean/dev wait (mins)     0.02     0.12 toolong      0   0.00     0   0.00     0   0.00
'
'OnePct:   1    8 XXX02400                   2400  13 stations, mean/dev wait (mins)     0.08     0.33 toolong      0   0.00     0   0.00     0   0.00
'
'OnePct:   2    8 XXX02400                   2400  13 stations, mean/dev wait (mins)     0.01     0.07 toolong      0   0.00     0   0.00     0   0.00
'
'OnePct: toolong space filler
'
'OnePct:    8 XXX02400                 27.20      10101    2400     235  8   10.10 HH    0   1   2 HH
'
'OnePct:   0    8 XXX02400                   2400  14 stations, mean/dev wait (mins)     0.09     0.38 toolong      0   0.00     0   0.00     0   0.00
'
'OnePct:   1    8 XXX02400                   2400  14 stations, mean/dev wait (mins)     0.01     0.06 toolong      0   0.00     0   0.00     0   0.00
'
'OnePct:   2    8 XXX02400                   2400  14 stations, mean/dev wait (mins)     0.01     0.05 toolong      0   0.00     0   0.00     0   0.00
'
'OnePct: toolong space filler
'
'OnePct:    8 XXX02400                 27.20      10101    2400     235  8   10.10 HH    0   1   2 HH
'
'OnePct:   0    8 XXX02400                   2400  15 stations, mean/dev wait (mins)     0.00     0.02 toolong      0   0.00     0   0.00     0   0.00
'
'OnePct:   1    8 XXX02400                   2400  15 stations, mean/dev wait (mins)     0.01     0.06 toolong      0   0.00     0   0.00     0   0.00
'
'OnePct:   2    8 XXX02400                   2400  15 stations, mean/dev wait (mins)     0.00     0.04 toolong      0   0.00     0   0.00     0   0.00
'
'OnePct: toolong space filler
'
'OnePct:    8 XXX02400                 27.20      10101    2400     235  8   10.10 HH    0   1   2 HH
'
'OnePct:   0    8 XXX02400                   2400  16 stations, mean/dev wait (mins)     0.00     0.03 toolong      0   0.00     0   0.00     0   0.00
'
'OnePct:   1    8 XXX02400                   2400  16 stations, mean/dev wait (mins)     0.00     0.01 toolong      0   0.00     0   0.00     0   0.00
'
'OnePct:   2    8 XXX02400                   2400  16 stations, mean/dev wait (mins)     0.00     0.02 toolong      0   0.00     0   0.00     0   0.00
'
'OnePct: toolong space filler
'
'OnePct:    8 XXX02400                 27.20      10101    2400     235  8   10.10 HH    0   1   2 HH
'
'OnePct:   0    8 XXX02400                   2400  17 stations, mean/dev wait (mins)     0.00     0.02 toolong      0   0.00     0   0.00     0   0.00
'
'OnePct:   1    8 XXX02400                   2400  17 stations, mean/dev wait (mins)     0.00     0.05 toolong      0   0.00     0   0.00     0   0.00
'
'OnePct:   2    8 XXX02400                   2400  17 stations, mean/dev wait (mins)     0.00     0.00 toolong      0   0.00     0   0.00     0   0.00
'
'OnePct: toolong space filler
'
'OnePct:    8 XXX02400                 27.20      10101    2400     235  8   10.10 HH    0   1   2 HH
'
'OnePct:   0    8 XXX02400                   2400  18 stations, mean/dev wait (mins)     0.00     0.00 toolong      0   0.00     0   0.00     0   0.00
'
'OnePct:   1    8 XXX02400                   2400  18 stations, mean/dev wait (mins)     0.01     0.06 toolong      0   0.00     0   0.00     0   0.00
'
'OnePct:   2    8 XXX02400                   2400  18 stations, mean/dev wait (mins)     0.00     0.02 toolong      0   0.00     0   0.00     0   0.00
'
'OnePct: toolong space filler
'
'SIM: RunSimulation for pct 
SIM:    9 XXX02700                 28.20      10101    2700     235  8   10.30 HH    0   1   2 HH
'
'OnePct:    9 XXX02700                 28.20      10101    2700     235  8   10.30 HH    0   1   2 HH
'
'OnePct:   0    9 XXX02700                   2700   6 stations, mean/dev wait (mins)    64.86    25.55 toolong   2394  88.67  2285  84.63  2029  75.15
'
'OnePct:   1    9 XXX02700                   2700   6 stations, mean/dev wait (mins)    67.78    27.55 toolong   2422  89.70  2285  84.63  2070  76.67
'
'OnePct:   2    9 XXX02700                   2700   6 stations, mean/dev wait (mins)    63.32    27.34 toolong   2348  86.96  2102  77.85  1842  68.22
'
'OnePct: toolong space filler
'
'OnePct:    9 XXX02700                 28.20      10101    2700     235  8   10.30 HH    0   1   2 HH
'
'OnePct:   0    9 XXX02700                   2700   7 stations, mean/dev wait (mins)    17.58    14.23 toolong    588  21.78   205   7.59     0   0.00
'
'OnePct:   1    9 XXX02700                   2700   7 stations, mean/dev wait (mins)    16.55    12.81 toolong    467  17.30     0   0.00     0   0.00
'
'OnePct:   2    9 XXX02700                   2700   7 stations, mean/dev wait (mins)    18.33    15.94 toolong    617  22.85   267   9.89   132   4.89
'
'OnePct: toolong space filler
'
'OnePct:    9 XXX02700                 28.20      10101    2700     235  8   10.30 HH    0   1   2 HH
'
'OnePct:   0    9 XXX02700                   2700   8 stations, mean/dev wait (mins)     8.31     6.99 toolong      0   0.00     0   0.00     0   0.00
'
'OnePct:   1    9 XXX02700                   2700   8 stations, mean/dev wait (mins)     6.43     6.94 toolong      0   0.00     0   0.00     0   0.00
'
'OnePct:   2    9 XXX02700                   2700   8 stations, mean/dev wait (mins)     6.52     6.04 toolong      0   0.00     0   0.00     0   0.00
'
'OnePct: toolong space filler
'
'OnePct:    9 XXX02700                 28.20      10101    2700     235  8   10.30 HH    0   1   2 HH
'
'OnePct:   0    9 XXX02700                   2700   9 stations, mean/dev wait (mins)     1.17     1.67 toolong      0   0.00     0   0.00     0   0.00
'
'OnePct:   1    9 XXX02700                   2700   9 stations, mean/dev wait (mins)     1.57     1.99 toolong      0   0.00     0   0.00     0   0.00
'
'OnePct:   2    9 XXX02700                   2700   9 stations, mean/dev wait (mins)     1.25     1.48 toolong      0   0.00     0   0.00     0   0.00
'
'OnePct: toolong space filler
'
'OnePct:    9 XXX02700                 28.20      10101    2700     235  8   10.30 HH    0   1   2 HH
'
'OnePct:   0    9 XXX02700                   2700  10 stations, mean/dev wait (mins)     0.43     0.83 toolong      0   0.00     0   0.00     0   0.00
'
'OnePct:   1    9 XXX02700                   2700  10 stations, mean/dev wait (mins)     0.94     1.55 toolong      0   0.00     0   0.00     0   0.00
'
'OnePct:   2    9 XXX02700                   2700  10 stations, mean/dev wait (mins)     0.53     0.89 toolong      0   0.00     0   0.00     0   0.00
'
'OnePct: toolong space filler
'
'OnePct:    9 XXX02700                 28.20      10101    2700     235  8   10.30 HH    0   1   2 HH
'
'OnePct:   0    9 XXX02700                   2700  11 stations, mean/dev wait (mins)     0.23     0.48 toolong      0   0.00     0   0.00     0   0.00
'
'OnePct:   1    9 XXX02700                   2700  11 stations, mean/dev wait (mins)     0.21     0.50 toolong      0   0.00     0   0.00     0   0.00
'
'OnePct:   2    9 XXX02700                   2700  11 stations, mean/dev wait (mins)     0.24     0.56 toolong      0   0.00     0   0.00     0   0.00
'
'OnePct: toolong space filler
'
'OnePct:    9 XXX02700                 28.20      10101    2700     235  8   10.30 HH    0   1   2 HH
'
'OnePct:   0    9 XXX02700                   2700  12 stations, mean/dev wait (mins)     0.12     0.37 toolong      0   0.00     0   0.00     0   0.00
'
'OnePct:   1    9 XXX02700                   2700  12 stations, mean/dev wait (mins)     0.16     0.50 toolong      0   0.00     0   0.00     0   0.00
'
'OnePct:   2    9 XXX02700                   2700  12 stations, mean/dev wait (mins)     0.07     0.23 toolong      0   0.00     0   0.00     0   0.00
'
'OnePct: toolong space filler
'
'OnePct:    9 XXX02700                 28.20      10101    2700     235  8   10.30 HH    0   1   2 HH
'
'OnePct:   0    9 XXX02700                   2700  13 stations, mean/dev wait (mins)     0.03     0.14 toolong      0   0.00     0   0.00     0   0.00
'
'OnePct:   1    9 XXX02700                   2700  13 stations, mean/dev wait (mins)     0.06     0.22 toolong      0   0.00     0   0.00     0   0.00
'
'OnePct:   2    9 XXX02700                   2700  13 stations, mean/dev wait (mins)     0.02     0.09 toolong      0   0.00     0   0.00     0   0.00
'
'OnePct: toolong space filler
'
'OnePct:    9 XXX02700                 28.20      10101    2700     235  8   10.30 HH    0   1   2 HH
'
'OnePct:   0    9 XXX02700                   2700  14 stations, mean/dev wait (mins)     0.02     0.10 toolong      0   0.00     0   0.00     0   0.00
'
'OnePct:   1    9 XXX02700                   2700  14 stations, mean/dev wait (mins)     0.02     0.12 toolong      0   0.00     0   0.00     0   0.00
'
'OnePct:   2    9 XXX02700                   2700  14 stations, mean/dev wait (mins)     0.02     0.12 toolong      0   0.00     0   0.00     0   0.00
'
'OnePct: toolong space filler
'
'OnePct:    9 XXX02700                 28.20      10101    2700     235  8   10.30 HH    0   1   2 HH
'
'OnePct:   0    9 XXX02700                   2700  15 stations, mean/dev wait (mins)     0.01     0.06 toolong      0   0.00     0   0.00     0   0.00
'
'OnePct:   1    9 XXX02700                   2700  15 stations, mean/dev wait (mins)     0.01     0.07 toolong      0   0.00     0   0.00     0   0.00
'
'OnePct:   2    9 XXX02700                   2700  15 stations, mean/dev wait (mins)     0.00     0.02 toolong      0   0.00     0   0.00     0   0.00
'
'OnePct: toolong space filler
'
'OnePct:    9 XXX02700                 28.20      10101    2700     235  8   10.30 HH    0   1   2 HH
'
'OnePct:   0    9 XXX02700                   2700  16 stations, mean/dev wait (mins)     0.01     0.04 toolong      0   0.00     0   0.00     0   0.00
'
'OnePct:   1    9 XXX02700                   2700  16 stations, mean/dev wait (mins)     0.00     0.01 toolong      0   0.00     0   0.00     0   0.00
'
'OnePct:   2    9 XXX02700                   2700  16 stations, mean/dev wait (mins)     0.01     0.11 toolong      0   0.00     0   0.00     0   0.00
'
'OnePct: toolong space filler
'
'OnePct:    9 XXX02700                 28.20      10101    2700     235  8   10.30 HH    0   1   2 HH
'
'OnePct:   0    9 XXX02700                   2700  17 stations, mean/dev wait (mins)     0.00     0.04 toolong      0   0.00     0   0.00     0   0.00
'
'OnePct:   1    9 XXX02700                   2700  17 stations, mean/dev wait (mins)     0.01     0.06 toolong      0   0.00     0   0.00     0   0.00
'
'OnePct:   2    9 XXX02700                   2700  17 stations, mean/dev wait (mins)     0.00     0.02 toolong      0   0.00     0   0.00     0   0.00
'
'OnePct: toolong space filler
'
'OnePct:    9 XXX02700                 28.20      10101    2700     235  8   10.30 HH    0   1   2 HH
'
'OnePct:   0    9 XXX02700                   2700  18 stations, mean/dev wait (mins)     0.00     0.00 toolong      0   0.00     0   0.00     0   0.00
'
'OnePct:   1    9 XXX02700                   2700  18 stations, mean/dev wait (mins)     0.01     0.06 toolong      0   0.00     0   0.00     0   0.00
'
'OnePct:   2    9 XXX02700                   2700  18 stations, mean/dev wait (mins)     0.00     0.02 toolong      0   0.00     0   0.00     0   0.00
'
'OnePct: toolong space filler
'
'OnePct:    9 XXX02700                 28.20      10101    2700     235  8   10.30 HH    0   1   2 HH
'
'OnePct:   0    9 XXX02700                   2700  19 stations, mean/dev wait (mins)     0.00     0.02 toolong      0   0.00     0   0.00     0   0.00
'
'OnePct:   1    9 XXX02700                   2700  19 stations, mean/dev wait (mins)     0.00     0.00 toolong      0   0.00     0   0.00     0   0.00
'
'OnePct:   2    9 XXX02700                   2700  19 stations, mean/dev wait (mins)     0.00     0.01 toolong      0   0.00     0   0.00     0   0.00
'
'OnePct: toolong space filler
'
'SIM: PRECINCT COUNT THIS BATCH    9
'
'Main: Ending execution
Main: 
TIME***********************************************************************
TIME CPU percent   96.09  96.88                    Fri Dec  2 17:37:12 2016
TIME ending                1.92 u         0.00 s   Res:        2500
TIME ending                1.92 u_t       0.02 s_t
TIME***********************************************************************



